https://sekacky.heureka.cz/fieldmann-fzr-2021-e-50002364/?cs=izelezarstvi-cz#4955024764-fieldmann-fzr-2021-e

https://sekacky.heureka.cz/riwall-pro-rpm-5135-pm12b1901009b/?cs=onlineshop-cz#4416832546-sekacka-riwall-rpm-5135-4-in1

https://sekacky.heureka.cz/al-ko-classic-3_25-e-113257/?cs=melichar-cz#5049492535-al-ko-sekacka-elektricka-classic-3-25-e-113257